<svg xmlns="http://www.w3.org/2000/svg" width="93.463" height="82.58" viewBox="0 0 93.463 82.58">
  <g id="error" transform="translate(0 -28.438)">
    <path id="Path_2938" data-name="Path 2938" d="M92.635,101.833l-40.6-70.339a6.124,6.124,0,0,0-10.6,0L.827,101.833a6.126,6.126,0,0,0,5.3,9.185H87.335A6.126,6.126,0,0,0,92.635,101.833ZM46.789,53.155a4.64,4.64,0,0,1,4.631,4.765l-.765,26.712a3.886,3.886,0,0,1-7.769,0L42.139,57.92A4.656,4.656,0,0,1,46.789,53.155Zm-.057,48.315a4.822,4.822,0,1,1,4.822-4.822A4.826,4.826,0,0,1,46.731,101.47Z" transform="translate(0)" fill="#323e48"/>
  </g>
</svg>
