{
	"api_url": "https://3goo37ld5e.execute-api.eu-central-1.amazonaws.com/prod/",
	"region": "eu-central-1",
	"supervisor_url": "https://d1uqm359uvdcsi.cloudfront.net/",
	"admin_url": "https://eu1-admin.omningage.cloud/"
}

